latex/vcd/booth_multiplier_tb.vcd
$date
   Sat Mar 22 17:54:39 2025
$end
$version
  2023.1
$end
$timescale
  1ps
$end
$scope module booth_multiplier_tb $end
$var wire 1 ! reset $end
$var wire 1 " start $end
$var wire 8 # x $end
$var wire 8 $ y $end
$var wire 16 % output $end
$var wire 1 & done $end
$upscope $end
$enddefinitions $end
#0
$dumpvars
x!
x"
bx #
bx $
b0 %
x&
$end
#100000
1"
b1111 #
b11 $
#110000
0"
#155000
b1111110100001111 %
#285000
b1011010000 %
#395000
1&
#405000
0&
#610000
1"
b11 #
b11111011 $
#620000
0"
#665000
b10100000011 %
#675000
b1010000001 %
#735000
b1111110001000000 %
#905000
1&
#915000
0&
#1120000
1"
b11111101 #
b11 $
#1130000
0"
#1145000
b11111101 %
#1175000
b1111110111111101 %
#1215000
b111111110 %
#1255000
b1111110111111111 %
#1425000
1&
#1435000
0&
#1630000
1"
b11111011 $
#1640000
0"
#1655000
b11111101 %
#1685000
b10111111101 %
#1695000
b1011111110 %
#1725000
b1111110111111110 %
#1765000
b1111111111 %
#1935000
1&
#1945000
0&
#2140000
1"
b10000000 #
b10000000 $
#2150000
0"
#2405000
b1000000000000001 %
#2415000
b1100000000000000 %
#2425000
1&
#2435000
0&
