latex/vcd/chronometer_tb.vcd
$date
   Sat Mar  8 16:54:16 2025
$end
$version
  2023.1
$end
$timescale
  1ps
$end
$scope module chronometer_tb $end
$var wire 1 " enable $end
$var wire 1 # reset $end
$var wire 1 $ load $end
$var wire 17 % input $end
$var wire 17 & output $end
$var wire 1 ' Q $end
$upscope $end
$enddefinitions $end
#10000000
$dumpvars
1"
0#
0$
b0 %
b1001 &
0'
$end
#10105000
b1010 &
#11105000
b1011 &
#12105000
b1100 &
#13105000
b1101 &
#14105000
b1110 &
#15105000
b1111 &
#16105000
b10000 &
#17105000
b10001 &
#18105000
b10010 &
#19105000
b10011 &
#20105000
b10100 &
#21105000
b10101 &
#22105000
b10110 &
#23105000
b10111 &
#24105000
b11000 &
#25105000
b11001 &
#26105000
b11010 &
#27105000
b11011 &
#28105000
b11100 &
#29105000
b11101 &
#30105000
b11110 &
#31105000
b11111 &
#32105000
b100000 &
#33105000
b100001 &
#34105000
b100010 &
#35105000
b100011 &
#36105000
b100100 &
#37105000
b100101 &
#38105000
b100110 &
#39105000
b100111 &
#40105000
b101000 &
#41105000
b101001 &
#42105000
b101010 &
#43105000
b101011 &
#44105000
b101100 &
#45105000
b101101 &
#46105000
b101110 &
#47105000
b101111 &
#48105000
b110000 &
#49105000
b110001 &
#50105000
b110010 &
#51105000
b110011 &
#52105000
b110100 &
#53105000
b110101 &
#54105000
b110110 &
#55105000
b110111 &
#56105000
b111000 &
#57105000
b111001 &
#58105000
b111010 &
#59105000
b111011 &
#60105000
b1000000 &
#61105000
b1000001 &
#62105000
b1000010 &
#63105000
b1000011 &
#64105000
b1000100 &
#65105000
b1000101 &
#66105000
b1000110 &
#67105000
b1000111 &
#68105000
b1001000 &
#69105000
b1001001 &
#70105000
b1001010 &
