latex/vcd/december_exam_tb.vcd
$date
   Mon Mar 24 00:50:06 2025
$end
$version
  2023.1
$end
$timescale
  1ps
$end
$scope module system_tb $end
$var wire 1 ! reset $end
$var wire 1 " start $end
$var wire 1 # req $end
$var wire 4 $ data $end
$var wire 1 % ack $end
$scope module sys_B $end
$scope module reg $end
$var wire 4 & data $end
$upscope $end
$upscope $end
$upscope $end
$enddefinitions $end
#0
$dumpvars
x!
x"
x#
bx $
x%
bx &
$end
#100000
1!
#103500
b0 &
#125000
0!
#150000
1"
#175000
0"
b1010 $
#185000
1#
#218500
1%
#235000
0#
#264500
0%
#287500
b1010 &
#305000
1#
#333500
1%
#345000
0#
#379500
0%
#402500
b111 &
#415000
b111 $
#425000
1#
#448500
1%
#465000
0#
#494500
0%
#517500
b1110 &
#525000
b1110 $
#535000
1#
#563500
1%
#575000
0#
#609500
0%
#645000
b10 $
#655000
1#
#678500
1%
#695000
0#
#724500
0%
#765000
1#
#793500
1%
#805000
0#
#839500
0%
#862500
b1 &
#875000
b1111 $
#885000
1#
#908500
1%
#925000
0#
#954500
0%
#985000
b100 $
#995000
1#
#1023500
1%
#1035000
0#
#1069500
0%
#1375000
1"
#1400000
0"
#1414500
b1010 $
#1437500
1#
#1455000
1%
#1483500
0#
#1495000
0%
#1505000
b1110 &
#1598500
1#
#1615000
1%
#1644500
0#
#1655000
0%
#1736500
b111 $
#1759500
1#
#1775000
1%
#1800000
1!
#1805000
0%
b0 &
#1805500
0#
#1825000
0!
#1925000
1"
#1950000
0"
#1989500
b1010 $
#2012500
1#
#2025000
1%
#2058500
0#
#2075000
0%
#2085000
b1010 &
#2173500
1#
#2185000
1%
#2219500
0#
#2235000
0%
#2245000
b111 &
#2311500
b111 $
#2334500
1#
#2345000
1%
#2380500
0#
#2395000
0%
#2405000
b1110 &
#2472500
b1110 $
#2495500
1#
#2515000
1%
#2541500
0#
#2555000
0%
#2633500
b10 $
#2656500
1#
#2675000
1%
#2702500
0#
#2715000
0%
#2817500
1#
#2835000
1%
#2863500
0#
#2875000
0%
#2885000
b1 &
#2955500
b1111 $
#2978500
1#
#2995000
1%
#3024500
0#
#3035000
0%
#3116500
b100 $
#3139500
1#
#3155000
1%
#3185500
0#
#3205000
0%
