latex/vcd/handshaking_tb.vcd
$date
   Sun Mar 23 01:52:38 2025
$end
$version
  2023.1
$end
$timescale
  1ps
$end
$scope module handshaking_tb $end
$var wire 1 ! req $end
$var wire 8 " data $end
$var wire 1 # ack $end
$var wire 1 $ start $end
$var wire 1 % reset $end
$upscope $end
$enddefinitions $end
#0
$dumpvars
x!
bx "
x#
0$
0%
$end
#100000
1%
#120000
0%
#140000
1$
#160000
0$
#175500
b10101000 "
#188500
1!
#212500
1#
#227500
0!
#246500
0#
#305500
1!
#331500
1#
#357500
0!
#382500
0#
#422500
b10111 "
#435500
1!
#467500
1#
#487500
0!
#518500
0#
#565500
b11100000 "
#578500
1!
#603500
1#
#617500
0!
#637500
0#
#695500
1!
#722500
1#
#747500
0!
#773500
0#
#825500
b11 "
#838500
1!
#858500
1#
#877500
0!
#909500
0#
#955500
b11111111 "
#968500
1!
#994500
1#
#1020500
0!
#1045500
0#
#1085500
b1000110 "
#1098500
1!
#1130500
1#
#1150500
0!
#1181500
0#
#1360000
1$
#1380000
0$
#1397500
b10101000 "
#1410500
1!
#1436500
1#
#1462500
0!
#1487500
0#
#1540500
1!
#1572500
1#
#1592500
0!
#1623500
0#
#1670500
b10111 "
#1683500
1!
#1708500
1#
#1722500
0!
#1742500
0#
#1780000
1%
#1787500
b11100000 "
#1800000
0%
#1820000
1$
#1840000
0$
#1852500
b10101000 "
#1865500
1!
#1895500
1#
#1917500
0!
#1946500
0#
#2008500
1!
#2031500
1#
#2047500
0!
#2065500
0#
#2112500
b10111 "
#2125500
1!
#2150500
1#
#2164500
0!
#2184500
0#
#2229500
b11100000 "
#2242500
1!
#2269500
1#
#2294500
0!
#2320500
0#
#2385500
1!
#2405500
1#
#2424500
0!
#2456500
0#
#2502500
b11 "
#2515500
1!
#2541500
1#
#2567500
0!
#2592500
0#
#2632500
b11111111 "
#2645500
1!
#2677500
1#
#2697500
0!
#2728500
0#
#2775500
b1000110 "
#2788500
1!
#2813500
1#
#2827500
0!
#2847500
0#
